<?xml version="1.0" encoding="UTF-8"?>
<svg width="23px" height="23px" viewBox="0 0 23 23" version="1.1" xmlns="http://www.w3.org/2000/svg" xmlns:xlink="http://www.w3.org/1999/xlink">
    <!-- Generator: Sketch 51.2 (57519) - http://www.bohemiancoding.com/sketch -->
    <title>facebook-2</title>
    <desc>Created with Sketch.</desc>
    <defs>
        <polygon id="path-1" points="0 0.0119217604 22.9879095 0.0119217604 22.9879095 22.9966259 0 22.9966259"></polygon>
    </defs>
    <g id="desktop" stroke="none" stroke-width="1" fill="none" fill-rule="evenodd">
        <g id="sign_up_page" transform="translate(-141.000000, -448.000000)">
            <g id="Group-4" transform="translate(107.000000, 205.000000)">
                <g id="facebook-2" transform="translate(34.000000, 243.000000)">
                    <mask id="mask-2" fill="white">
                        <use xlink:href="#path-1"></use>
                    </mask>
                    <g id="Clip-2"></g>
                    <path d="M19.8901638,0.0119217604 L3.09768949,0.0119217604 C1.38691687,0.0119217604 0,1.3987824 0,3.10961125 L0,19.902198 C0,21.6130269 1.38686064,22.9998875 3.09768949,22.9998875 L11.3796577,22.9998875 L11.3937726,14.7852323 L9.2596088,14.7852323 C8.98225917,14.7852323 8.75715159,14.5609682 8.75608313,14.2836186 L8.74584841,11.6356944 C8.74477995,11.3568264 8.97056235,11.1302005 9.24943032,11.1302005 L11.3797139,11.1302005 L11.3797139,8.57163325 C11.3797139,5.6024401 13.1931149,3.98569193 15.8418264,3.98569193 L18.0152983,3.98569193 C18.293379,3.98569193 18.5188802,4.21113692 18.5188802,4.48927384 L18.5188802,6.72201711 C18.5188802,7.00004156 18.2935477,7.22543032 18.0155795,7.22559902 L16.6817482,7.2262176 C15.2412958,7.2262176 14.9623716,7.9107066 14.9623716,8.91522738 L14.9623716,11.1302567 L18.1275428,11.1302567 C18.4291296,11.1302567 18.6631222,11.3936039 18.6275819,11.69311 L18.3137359,14.3410342 C18.2837066,14.5944279 18.0688337,14.7853447 17.8136968,14.7853447 L14.9764866,14.7853447 L14.9623716,23 L19.8902763,23 C21.6010489,23 22.9879095,21.6131394 22.9879095,19.9023667 L22.9879095,3.10961125 C22.9878533,1.3987824 21.6009927,0.0119217604 19.8901638,0.0119217604" id="Fill-1" fill="#445281" mask="url(#mask-2)"></path>
                </g>
            </g>
        </g>
    </g>
</svg>