<?xml version="1.0" encoding="UTF-8"?>
<svg width="78px" height="78px" viewBox="0 0 78 78" version="1.1" xmlns="http://www.w3.org/2000/svg" xmlns:xlink="http://www.w3.org/1999/xlink">
    <!-- Generator: Sketch 51.2 (57519) - http://www.bohemiancoding.com/sketch -->
    <title>Group 17@3x</title>
    <desc>Created with Sketch.</desc>
    <defs>
        <polygon id="path-1" points="0 0 39.9968689 0 39.9968689 39.9953033 0 39.9953033"></polygon>
    </defs>
    <g id="CC---CreditSpring-MOdule" stroke="none" stroke-width="1" fill="none" fill-rule="evenodd">
        <g id="homepage_desktop" transform="translate(-312.000000, -672.000000)">
            <g id="Group-12" transform="translate(203.000000, 635.000000)">
                <g id="Group-17" transform="translate(109.000000, 37.000000)">
                    <circle id="Oval" fill="#FEEED2" cx="39" cy="39" r="39"></circle>
                    <g id="browser" transform="translate(19.000000, 19.000000)">
                        <g id="Group-3">
                            <mask id="mask-2" fill="white">
                                <use xlink:href="#path-1"></use>
                            </mask>
                            <g id="Clip-2"></g>
                            <path d="M36.6600391,-0.0782778865 L3.26168297,-0.0782778865 C1.41784736,-0.0761643836 -0.0761643836,1.41784736 -0.0782778865,3.26168297 L-0.0782778865,36.6600391 C-0.0761643836,38.5038748 1.41784736,39.9978865 3.26168297,40 L36.6600391,40 C38.5038748,39.9978865 39.9978865,38.5038748 40,36.6600391 L40,3.26168297 C39.9978865,1.41784736 38.5038748,-0.0761643836 36.6600391,-0.0782778865 Z M3.26168297,1.25761252 L36.6600391,1.25761252 C37.7669667,1.25761252 38.6641096,2.15475538 38.6641096,3.26168297 L38.6641096,5.26544031 L1.25761252,5.26544031 L1.25761252,3.26168297 C1.25761252,2.15475538 2.15475538,1.25761252 3.26168297,1.25761252 Z M36.6600391,38.6641096 L3.26168297,38.6641096 C2.15475538,38.6641096 1.25761252,37.7669667 1.25761252,36.6600391 L1.25761252,6.60133072 L38.6641096,6.60133072 L38.6641096,36.6600391 C38.6641096,37.7669667 37.7669667,38.6641096 36.6600391,38.6641096 Z" id="Fill-1" fill="#E29423" mask="url(#mask-2)"></path>
                        </g>
                        <polygon id="Fill-4" fill="#E29423" points="3.26168297 3.92947162 4.59757339 3.92947162 4.59757339 2.59358121 3.26168297 2.59358121"></polygon>
                        <polygon id="Fill-5" fill="#E29423" points="5.93354207 3.92947162 7.26943249 3.92947162 7.26943249 2.59358121 5.93354207 2.59358121"></polygon>
                        <polygon id="Fill-6" fill="#E29423" points="8.60540117 3.92947162 9.94129159 3.92947162 9.94129159 2.59358121 8.60540117 2.59358121"></polygon>
                        <path d="M28.1020744,13.7927984 C23.8176125,9.84313112 17.3168689,9.53675147 12.6800783,13.0659883 C12.3828571,13.2937769 12.0942466,13.5335421 11.816908,13.7927984 C6.91843444,18.2720939 6.5783953,25.8745205 11.0576908,30.7729941 C15.2657534,35.3748728 22.2939335,35.9940509 27.2419569,32.1994521 C27.5390998,31.9716634 27.8274755,31.7318982 28.1048141,31.4725636 C32.9864579,26.9859883 33.3069276,19.3912329 28.8200391,14.5095108 C28.5919374,14.2609785 28.3531115,14.0224658 28.1048141,13.7940509 L28.1020744,13.7927984 Z M27.6057926,30.0739726 C27.0187084,29.5869276 26.3866928,29.1569472 25.7179648,28.7900587 C26.2778082,27.0122896 26.5823875,25.164227 26.6224658,23.3008219 L30.6136986,23.3008219 C30.4522114,25.8451663 29.3851272,28.2479061 27.6057926,30.0739726 Z M26.5175734,31.0619178 C26.4147945,31.1427006 26.308728,31.2169863 26.2028963,31.2936986 C26.0506458,31.4038356 25.8977691,31.5120157 25.7409002,31.6135421 C25.6280235,31.6863405 25.5131115,31.7545205 25.3981213,31.8233268 C25.2406262,31.9168689 25.0822701,32.0071233 24.9199217,32.0905675 C24.8009393,32.1532681 24.6801566,32.2134638 24.5584344,32.2716243 C24.3949119,32.3504501 24.2285714,32.4238748 24.0609785,32.4938552 C23.9472407,32.5406654 23.8331898,32.5874755 23.7181996,32.6274755 C24.3471624,31.8443836 24.8617613,30.9754207 25.2464188,30.0471233 C25.7277495,30.3201566 26.1866928,30.6305284 26.6190998,30.9751076 C26.584501,31.0044618 26.552407,31.0350685 26.5175734,31.0619178 Z M15.3626614,32.2721722 C15.2421918,32.2147162 15.1232094,32.1550685 15.0051663,32.0933072 C14.8416438,32.0071233 14.6804697,31.9156947 14.5214873,31.8209002 C14.4086106,31.7538943 14.2958121,31.6872798 14.1875538,31.6151076 C14.0285714,31.5120157 13.8735029,31.4019569 13.72,31.2903327 C13.6157339,31.2148728 13.5109198,31.1414481 13.4093933,31.0619178 C13.3744814,31.0353816 13.3427006,31.0044618 13.3078669,30.9772211 C13.7387084,30.6320157 14.1958513,30.3210959 14.6753033,30.0473581 C15.0596477,30.9763601 15.5742466,31.845636 16.2035225,32.6296673 C16.0894716,32.5868493 15.9757339,32.5409785 15.8628571,32.496047 C15.6937769,32.425362 15.5262622,32.3510763 15.3604697,32.2721722 L15.3626614,32.2721722 Z M12.3159295,15.1913894 C12.9030137,15.6785127 13.5350294,16.1084149 14.2037573,16.4753816 C13.6439139,18.2531507 13.3393346,20.1015264 13.2992564,21.9649315 L9.30802348,21.9649315 C9.46951076,19.420274 10.5365949,17.017456 12.3159295,15.1913894 Z M13.4041487,14.2037573 C13.5069276,14.1227397 13.6129941,14.0487671 13.7188258,13.9716634 C13.8710763,13.8616047 14.023953,13.7533464 14.1814481,13.65182 C14.2936986,13.5790998 14.4086106,13.5109198 14.5229746,13.4426614 C14.6804697,13.3494325 14.8394521,13.2586301 15.0018004,13.1757339 C15.1207828,13.1127984 15.2415656,13.0528376 15.3632877,12.9947554 C15.5268102,12.9158513 15.6931507,12.8421918 15.8607436,12.7721331 C15.9744814,12.7253229 16.0885323,12.678591 16.2035225,12.6385127 C15.5745597,13.4216047 15.0599609,14.2903327 14.6753033,15.218317 C14.1939726,14.9455969 13.7350294,14.635225 13.3023875,14.2905675 C13.3372211,14.2609785 13.3693151,14.2303718 13.4041487,14.2037573 Z M24.5590607,12.9931898 C24.6795303,13.0507241 24.7985127,13.1102935 24.9165558,13.1723679 C25.0800783,13.258317 25.2412524,13.3500587 25.4002348,13.4448532 C25.5131115,13.5114677 25.62591,13.5784736 25.7341683,13.6506458 C25.8931507,13.7533464 26.0482192,13.8634051 26.2017221,13.9750294 C26.3059883,14.0505675 26.4108023,14.1239922 26.5123288,14.2034442 C26.5472407,14.2303718 26.5790215,14.2609785 26.6138552,14.288454 C26.1830137,14.6336595 25.7258708,14.9443444 25.2464188,15.218317 C24.8620744,14.2893933 24.3474755,13.4198043 23.7181996,12.635773 C23.8322505,12.678591 23.9459883,12.724775 24.058865,12.7693933 C24.2279452,12.8403131 24.3954599,12.9142857 24.5612524,12.9931898 L24.5590607,12.9931898 Z M19.2930724,16.5931115 C18.1216438,16.5206262 16.9707241,16.2548728 15.8861057,15.8066536 C16.7365166,13.7921722 17.9442661,12.3966341 19.2930724,12.0425832 L19.2930724,16.5931115 Z M19.2930724,17.929002 L19.2930724,21.9649315 L14.6345988,21.9649315 C14.6810959,20.3036399 14.9507632,18.6561252 15.4360078,17.0663796 C16.6652055,17.5648532 17.968454,17.8550294 19.2930724,17.925636 L19.2930724,17.929002 Z M19.2930724,23.3008219 L19.2930724,27.3401174 C17.9675147,27.4100978 16.6627789,27.7005871 15.4326419,28.1989824 C14.9486497,26.6093151 14.6801566,24.9618004 14.6345988,23.3008219 L19.2930724,23.3008219 Z M19.2930724,28.6726419 L19.2930724,33.2228571 C17.9464579,32.868728 16.7386301,31.4735029 15.8861057,29.4587867 C16.9707241,29.0104892 18.1216438,28.7448141 19.2930724,28.6726419 Z M20.6286497,28.6726419 C21.8000783,28.7448141 22.950998,29.0104892 24.0356164,29.4587867 C23.1852055,31.4735029 21.977456,32.865362 20.6286497,33.2228571 L20.6286497,28.6726419 Z M20.6286497,27.3367515 L20.6286497,23.3008219 L25.2871233,23.3008219 C25.2415656,24.9618004 24.9730724,26.6093151 24.4890802,28.1989824 C23.2589432,27.7005871 21.9542074,27.4100978 20.6286497,27.3401174 L20.6286497,27.3367515 Z M20.6286497,21.9649315 L20.6286497,17.925636 C21.9542074,17.8553425 23.2589432,17.5651663 24.4890802,17.0663796 C24.9730724,18.6561252 25.2415656,20.3036399 25.2871233,21.9646184 L20.6286497,21.9646184 L20.6286497,21.9649315 Z M20.6286497,16.5931115 L20.6286497,12.0428963 C21.9752642,12.3966341 23.183092,13.7921722 24.0356164,15.8069667 C22.950998,16.2548728 21.8000783,16.5206262 20.6286497,16.5931115 Z M13.2992564,23.3008219 C13.3393346,25.164227 13.6439139,27.0122896 14.2037573,28.7900587 C13.5347162,29.1569472 12.9027006,29.5869276 12.3159295,30.0739726 C10.5363601,28.2482192 9.46919765,25.8454795 9.30802348,23.3008219 L13.2992564,23.3008219 Z M26.6224658,21.9649315 C26.5823875,20.1015264 26.2778082,18.2531507 25.7179648,16.4753816 C26.3870059,16.1084149 27.0190215,15.6785127 27.6057926,15.1913894 C29.385362,17.0172211 30.4525245,19.420274 30.6136986,21.9646184 L26.6224658,21.9646184 L26.6224658,21.9649315 Z" id="Fill-7" fill="#E29423"></path>
                    </g>
                </g>
            </g>
        </g>
    </g>
</svg>