<?xml version="1.0" encoding="UTF-8"?>
<svg width="38px" height="38px" viewBox="0 0 38 38" version="1.1" xmlns="http://www.w3.org/2000/svg" xmlns:xlink="http://www.w3.org/1999/xlink">
    <!-- Generator: Sketch 51.2 (57519) - http://www.bohemiancoding.com/sketch -->
    <title>home</title>
    <desc>Created with Sketch.</desc>
    <defs></defs>
    <g id="Page-1" stroke="none" stroke-width="1" fill="none" fill-rule="evenodd">
        <g id="homepage_desktop" transform="translate(-541.000000, -789.000000)" fill="#E36E6F">
            <g id="home" transform="translate(541.000000, 789.000000)">
                <path d="M37.3087234,17.4743404 L18.7566383,0.249021277 L0.205361702,17.4743404 C-0.0533617021,17.7168936 -0.0695319149,18.127617 0.173829787,18.3895745 C0.413957447,18.6523404 0.824680851,18.6644681 1.0866383,18.4219149 L3.23404255,16.4289362 L3.23404255,37.9991915 L34.279234,37.9991915 L34.279234,16.4289362 L36.4274468,18.4219149 C36.5503404,18.5383404 36.708,18.5949362 36.8664681,18.5949362 C37.0427234,18.5949362 37.2133191,18.5254043 37.3402553,18.3895745 C37.5860426,18.127617 37.5706809,17.7168936 37.3087234,17.4743404 Z M32.9880426,36.708 L4.52604255,36.708 L4.52604255,15.2282979 L18.7566383,2.01480851 L32.9880426,15.2282979 L32.9880426,36.708 Z" id="Fill-1"></path>
                <path d="M8.40689362,23.1242128 L17.4622128,23.1242128 L17.4622128,14.0697021 L8.40689362,14.0697021 L8.40689362,23.1242128 Z M9.70212766,21.8289787 L16.1702128,21.8289787 L16.1702128,15.3608936 L9.70212766,15.3608936 L9.70212766,21.8289787 Z" id="Fill-3"></path>
                <path d="M20.0518723,23.1242128 L29.106383,23.1242128 L29.106383,14.0697021 L20.0518723,14.0697021 L20.0518723,23.1242128 Z M21.3430638,21.8289787 L27.8111489,21.8289787 L27.8111489,15.3608936 L21.3430638,15.3608936 L21.3430638,21.8289787 Z" id="Fill-4"></path>
                <path d="M8.40689362,34.7651489 L17.4622128,34.7651489 L17.4622128,25.7106383 L8.40689362,25.7106383 L8.40689362,34.7651489 Z M9.70212766,33.4739574 L16.1702128,33.4739574 L16.1702128,27.0058723 L9.70212766,27.0058723 L9.70212766,33.4739574 Z" id="Fill-5"></path>
                <path d="M20.0518723,34.7651489 L29.106383,34.7651489 L29.106383,25.7106383 L20.0518723,25.7106383 L20.0518723,34.7651489 Z M21.3430638,33.4739574 L27.8111489,33.4739574 L27.8111489,27.0058723 L21.3430638,27.0058723 L21.3430638,33.4739574 Z" id="Fill-6"></path>
            </g>
        </g>
    </g>
</svg>