<?xml version="1.0" encoding="UTF-8"?>
<svg width="18px" height="19px" viewBox="0 0 18 19" version="1.1" xmlns="http://www.w3.org/2000/svg" xmlns:xlink="http://www.w3.org/1999/xlink">
    <!-- Generator: Sketch 51.2 (57519) - http://www.bohemiancoding.com/sketch -->
    <title>phone-call</title>
    <desc>Created with Sketch.</desc>
    <defs>
        <polygon id="path-1" points="0 0.0453388863 17.9759451 0.0453388863 17.9759451 18.0473984 0 18.0473984"></polygon>
    </defs>
    <g id="Page-1" stroke="none" stroke-width="1" fill="none" fill-rule="evenodd">
        <g id="homepage_desktop" transform="translate(-427.000000, -310.000000)">
            <g id="phone-call" transform="translate(427.000000, 310.000000)">
                <mask id="mask-2" fill="white">
                    <use xlink:href="#path-1"></use>
                </mask>
                <g id="Clip-2"></g>
                <path d="M14.2142533,11.1970449 C13.8456095,10.8133931 13.4011187,10.6082216 12.9300792,10.6082216 C12.4627441,10.6082216 12.0143588,10.8094987 11.6307071,11.1933404 L10.4299789,12.3901266 C10.3310976,12.3368865 10.2324063,12.2875409 10.1374195,12.2381953 C10.000686,12.1697573 9.87140897,12.1051662 9.76117678,12.0367282 C8.63658047,11.3224749 7.61452243,10.3915092 6.63425858,9.18712401 C6.15932454,8.58675989 5.84021636,8.08138259 5.60849604,7.5686438 C5.91995778,7.28368338 6.20881266,6.98718206 6.48987863,6.70222164 C6.59640633,6.5959314 6.70269657,6.4857467 6.80917678,6.37926649 C7.60692348,5.58151979 7.60692348,4.54796834 6.80917678,3.75003166 L5.77173087,2.71277573 C5.6541372,2.59499208 5.53241161,2.47345646 5.41852243,2.35196834 C5.1905066,2.11635356 4.95118734,1.87313984 4.70426913,1.64512401 C4.33562533,1.28037467 3.89483905,1.08669657 3.43139842,1.08669657 C2.96776781,1.08669657 2.51957256,1.28037467 2.13962533,1.64512401 L2.13202639,1.65272296 L0.840063325,2.95603694 C0.353778364,3.44227441 0.0764168865,4.03499208 0.0155778364,4.72274406 C-0.0755145119,5.83214248 0.251192612,6.86569393 0.502005277,7.54190501 C1.11737731,9.2023219 2.03703958,10.7410132 3.40860158,12.3901266 C5.07272296,14.3772507 7.07504485,15.9463852 9.36232718,17.0520792 C10.2361108,17.4661741 11.4026913,17.9563061 12.7057678,18.0397995 C12.7857467,18.0436939 12.8692401,18.0473984 12.945277,18.0473984 C13.8230026,18.0473984 14.5600528,17.7322322 15.1375726,17.1051293 C15.1413245,17.0975303 15.1489235,17.0938259 15.1528179,17.0862269 C15.3503905,16.8469077 15.5782164,16.6301953 15.8177256,16.3985224 C15.9809604,16.2426491 16.1481372,16.0794142 16.311562,15.908343 C16.6878047,15.5170923 16.8851873,15.0610607 16.8851873,14.5937731 C16.8851873,14.1227335 16.6839103,13.6704063 16.3002586,13.2904591 L14.2142533,11.1970449 Z M15.5745119,15.1977942 C15.5706174,15.1977942 15.5706174,15.2016887 15.5745119,15.1977942 C15.426285,15.357562 15.2743061,15.5018945 15.1108813,15.6614248 C14.8639631,15.8970396 14.6131504,16.1439578 14.3776781,16.4213193 C13.9938364,16.8317098 13.5417467,17.0253879 12.9489815,17.0253879 C12.8920369,17.0253879 12.8311979,17.0253879 12.7742533,17.0216834 C11.645905,16.9494934 10.5971557,16.5087071 9.8107124,16.1326544 C7.66016359,15.091504 5.77173087,13.6134617 4.20259631,11.7404169 C2.90711873,10.1787388 2.04074406,8.73498681 1.46711873,7.18480211 C1.11367282,6.2388285 0.984538259,5.5015409 1.04153034,4.80637995 C1.07952507,4.36169921 1.25040633,3.99324538 1.56581003,3.67788918 L2.86147757,2.38217414 C3.04755673,2.20744591 3.24512929,2.1124591 3.43899736,2.1124591 C3.67831662,2.1124591 3.87199472,2.25698153 3.99372032,2.37846966 L4.00502375,2.38982058 C4.23693404,2.60648549 4.45716095,2.83060686 4.68902375,3.06992612 C4.80685488,3.19160422 4.9283905,3.31313984 5.04987863,3.43856992 L6.08713456,4.47582586 C6.48987863,4.87856992 6.48987863,5.25091821 6.08713456,5.65366227 C5.97694987,5.76389446 5.87061214,5.87407916 5.76042744,5.98036939 C5.44131926,6.30707652 5.13726649,6.61112929 4.80685488,6.90744063 C4.79925594,6.91503958 4.79165699,6.91893404 4.78776253,6.92634301 C4.46105541,7.25324011 4.52189446,7.57234828 4.59014248,7.78882322 L4.60168338,7.82316095 C4.87139842,8.4765752 5.25134565,9.0921372 5.82886544,9.82548285 L5.83261741,9.82918734 C6.88136675,11.1209604 7.98687071,12.1280106 9.20650132,12.8992084 C9.36232718,12.9980897 9.52185752,13.0778786 9.67383641,13.1537256 C9.8107124,13.2222111 9.93984697,13.2867546 10.0500317,13.3551926 C10.065277,13.3628391 10.0804749,13.3741425 10.0956728,13.3817414 C10.2248074,13.446285 10.346343,13.4767282 10.4717256,13.4767282 C10.7871293,13.4767282 10.9847018,13.2791557 11.0492454,13.2146121 L12.3486649,11.9151926 C12.477942,11.7858681 12.6831609,11.6302322 12.9224802,11.6302322 C13.158095,11.6302322 13.3517731,11.7782691 13.4695567,11.9075937 L15.5706174,14.0086069 C15.962058,14.396153 15.962058,14.7952401 15.5745119,15.1977942 Z" id="Fill-1" fill="#FFFFFF" mask="url(#mask-2)"></path>
                <path d="M9.71572559,4.32755145 C10.7110449,4.49472823 11.6154617,4.96595778 12.3373615,5.68781003 C13.0592137,6.40966227 13.5265488,7.31388918 13.6975726,8.30939842 C13.7393193,8.56025858 13.9558417,8.73498681 14.2029499,8.73498681 C14.2332032,8.73498681 14.2598945,8.73109235 14.2903377,8.72738786 C14.5714037,8.6817467 14.7576253,8.41587863 14.7120317,8.13467018 C14.5068127,6.93023747 13.9368918,5.83214248 13.0668127,4.96206332 C12.1967335,4.09193668 11.0986385,3.52201583 9.8942058,3.31684433 C9.61313984,3.27139314 9.35102375,3.4574723 9.30148813,3.73483377 C9.25214248,4.01219525 9.43446966,4.28191029 9.71572559,4.32755145 Z" id="Fill-3" fill="#FFFFFF" mask="url(#mask-2)"></path>
                <path d="M17.9680844,7.98639578 C17.6300739,6.00321372 16.6952137,4.19846438 15.2591082,2.76212137 C13.8230026,1.32601583 12.0182533,0.39139314 10.0348338,0.0531451187 C9.7574723,0.0037994723 9.4953562,0.193773087 9.44601055,0.471134565 C9.40036939,0.752200528 9.58644855,1.01455409 9.86770449,1.06389974 C11.6383061,1.36405805 13.2530818,2.20374142 14.5372559,3.48421108 C15.8214301,4.76838522 16.6573615,6.38316095 16.9575673,8.15376253 C16.999314,8.40438522 17.2157889,8.57916095 17.4627546,8.57916095 C17.4931504,8.57916095 17.5198892,8.57545646 17.550095,8.57156201 C17.8276464,8.5298153 18.0176201,8.26375726 17.9680844,7.98639578 Z" id="Fill-4" fill="#FFFFFF" mask="url(#mask-2)"></path>
            </g>
        </g>
    </g>
</svg>