
<svg width="44px" height="32px" viewBox="0 0 44 32" version="1.1" xmlns="http://www.w3.org/2000/svg" xmlns:xlink="http://www.w3.org/1999/xlink">
    <!-- Generator: Sketch 51.2 (57519) - http://www.bohemiancoding.com/sketch -->
    <desc>Created with Sketch.</desc>
    <defs>
        <polygon id="path-1" points="0.06 0.696 43.92575 0.696 43.92575 11.048 0.06 11.048"></polygon>
    </defs>
    <g id="Page-1" stroke="none" stroke-width="1" fill="none" fill-rule="evenodd">
        <g id="homepage_desktop" transform="translate(-538.000000, -1012.000000)">
            <g id="wifi" transform="translate(538.000000, 1012.000000)">
                <g id="Group-3">
                    <mask id="mask-2" fill="white">
                        <use xlink:href="#path-1"></use>
                    </mask>
                    <g id="Clip-2"></g>
                    <path d="M43.691,9.684 C37.898,3.887 30.18,0.696 21.965,0.696 C13.746,0.696 6.031,3.887 0.234,9.684 C-0.078,9.997 -0.078,10.501 0.234,10.813 C0.547,11.126 1.055,11.126 1.367,10.813 C6.859,5.321 14.172,2.294 21.965,2.294 C29.754,2.294 37.066,5.321 42.562,10.813 C42.719,10.969 42.922,11.048 43.125,11.048 C43.332,11.048 43.535,10.969 43.691,10.813 C44.004,10.501 44.004,9.993 43.691,9.684 Z" id="Fill-1" fill="#69B012" mask="url(#mask-2)"></path>
                </g>
                <path d="M4.938,14.383 C4.625,14.696 4.625,15.204 4.938,15.516 C5.094,15.673 5.297,15.751 5.504,15.751 C5.707,15.751 5.914,15.673 6.066,15.516 C14.832,6.751 29.094,6.751 37.859,15.516 C38.172,15.829 38.676,15.829 38.988,15.516 C39.301,15.204 39.301,14.696 38.988,14.383 C29.602,4.997 14.324,4.997 4.938,14.383 Z" id="Fill-4" fill="#69B012"></path>
                <path d="M21.965,13.989 C17.305,13.989 12.926,15.801 9.641,19.087 C9.328,19.399 9.328,19.907 9.641,20.219 C9.953,20.532 10.457,20.532 10.77,20.219 C13.758,17.235 17.73,15.591 21.965,15.591 C26.195,15.591 30.172,17.235 33.156,20.219 C33.312,20.376 33.516,20.454 33.723,20.454 C33.926,20.454 34.129,20.376 34.285,20.219 C34.598,19.907 34.598,19.399 34.285,19.087 C31,15.801 26.625,13.989 21.965,13.989 Z" id="Fill-5" fill="#69B012"></path>
                <path d="M21.965,21.516 C19.074,21.516 16.723,23.868 16.723,26.758 C16.723,29.649 19.074,32.001 21.965,32.001 C24.855,32.001 27.203,29.649 27.203,26.758 C27.203,23.868 24.855,21.516 21.965,21.516 Z M21.965,30.399 C19.957,30.399 18.324,28.766 18.324,26.758 C18.324,24.751 19.957,23.118 21.965,23.118 C23.969,23.118 25.605,24.751 25.605,26.758 C25.605,28.766 23.973,30.399 21.965,30.399 Z" id="Fill-6" fill="#69B012"></path>
            </g>
        </g>
    </g>
</svg>