<?xml version="1.0" encoding="UTF-8"?>
<svg width="40px" height="42px" viewBox="0 0 40 42" version="1.1" xmlns="http://www.w3.org/2000/svg" xmlns:xlink="http://www.w3.org/1999/xlink">
    <!-- Generator: Sketch 51.2 (57519) - http://www.bohemiancoding.com/sketch -->
    <title>list</title>
    <desc>Created with Sketch.</desc>
    <defs>
        <polygon id="path-1" points="0.0533333333 0.357446809 38.3991111 0.357446809 38.3991111 38.9608085 0.0533333333 38.9608085"></polygon>
    </defs>
    <g id="desktop" stroke="none" stroke-width="1" fill="none" fill-rule="evenodd">
        <g id="homepage_category_v2" transform="translate(-539.000000, -824.000000)">
            <g id="list" transform="translate(539.000000, 824.000000)">
                <path d="M38.9271111,39.8964255 L34.6844444,35.4354894 C35.9235556,34.0637872 36.6871111,32.2488511 36.6871111,30.251617 C36.6871111,25.9962128 33.2426667,22.5334468 29.0106667,22.5334468 C24.7777778,22.5334468 21.3333333,25.9962128 21.3333333,30.251617 C21.3333333,34.5070213 24.7777778,37.9697872 29.0106667,37.9697872 C30.7466667,37.9697872 32.344,37.38 33.632,36.3988085 L37.8995556,40.884766 C38.0382222,41.0313191 38.2257778,41.1081702 38.4133333,41.1081702 C38.5902222,41.1081702 38.7671111,41.0411489 38.9031111,40.9088936 C39.1875556,40.6363404 39.1982222,40.182383 38.9271111,39.8964255 Z M22.7573333,30.251617 C22.7573333,26.7817021 25.5626667,23.9614468 29.0106667,23.9614468 C32.4586667,23.9614468 35.264,26.7817021 35.264,30.251617 C35.264,33.7179574 32.4586667,36.5382128 29.0106667,36.5382128 C25.5626667,36.5382128 22.7573333,33.7179574 22.7573333,30.251617 Z" id="Fill-1" fill="#479BE7"></path>
                <path d="M19.2017778,8.93795745 C18.8053333,8.93795745 18.4897778,9.25519149 18.4897778,9.6492766 C18.4897778,10.0478298 18.8053333,10.3650638 19.2017778,10.3650638 L32,10.3650638 C32.392,10.3650638 32.712,10.0478298 32.712,9.6492766 C32.712,9.25519149 32.392,8.93795745 32,8.93795745 L19.2017778,8.93795745 Z" id="Fill-2" fill="#479BE7"></path>
                <path d="M32.712,19.6613617 C32.712,19.2628085 32.392,18.9455745 32,18.9455745 L19.2017778,18.9455745 C18.8053333,18.9455745 18.4897778,19.2628085 18.4897778,19.6613617 C18.4897778,20.0554468 18.8053333,20.3726809 19.2017778,20.3726809 L32,20.3726809 C32.392,20.3726809 32.712,20.0554468 32.712,19.6613617 Z" id="Fill-3" fill="#479BE7"></path>
                <path d="M14.6355556,5.53417021 C14.3368889,5.27591489 13.8853333,5.31076596 13.632,5.61102128 L9.18755556,10.8225957 L6.472,8.77353191 C6.16,8.53582979 5.712,8.5992766 5.47555556,8.91651064 C5.24,9.23106383 5.30577778,9.67787234 5.61777778,9.91468085 L8.86844444,12.3658723 C8.99644444,12.4632766 9.14577778,12.5088511 9.29511111,12.5088511 C9.49688889,12.5088511 9.69422222,12.4248511 9.83644444,12.2604255 L14.712,6.53948936 C14.9688889,6.24280851 14.9342222,5.79242553 14.6355556,5.53417021 Z" id="Fill-4" fill="#479BE7"></path>
                <path d="M14.6355556,15.5417872 C14.3368889,15.2871064 13.8853333,15.318383 13.632,15.6186383 L9.18755556,20.8302128 L6.472,18.7811489 C6.16,18.5443404 5.712,18.6068936 5.47555556,18.9241277 C5.24,19.2386809 5.30577778,19.6890638 5.61777778,19.9231915 L8.86844444,22.3770638 C8.99644444,22.4708936 9.14577778,22.5200426 9.29511111,22.5200426 C9.49688889,22.5200426 9.69422222,22.4324681 9.83644444,22.2689362 L14.712,16.5506809 C14.9688889,16.2504255 14.9342222,15.8000426 14.6355556,15.5417872 Z" id="Fill-5" fill="#479BE7"></path>
                <g id="Group-9">
                    <mask id="mask-2" fill="white">
                        <use xlink:href="#path-1"></use>
                    </mask>
                    <g id="Clip-7"></g>
                    <path d="M13.632,26.3420426 L9.18755556,31.553617 L6.472,29.5045532 C6.16,29.2677447 5.712,29.3302979 5.47555556,29.6475319 C5.24,29.9620851 5.30577778,30.4124681 5.61777778,30.6465957 L8.86844444,33.1004681 C8.99644444,33.1942979 9.14577778,33.2434468 9.29511111,33.2434468 C9.49688889,33.2434468 9.69422222,33.1558723 9.83644444,32.9923404 L14.712,27.2740851 C14.9688889,26.9738298 14.9342222,26.5234468 14.6355556,26.2651915 C14.3368889,26.0105106 13.8853333,26.0417872 13.632,26.3420426 Z" id="Fill-6" fill="#4E9FE9" mask="url(#mask-2)"></path>
                    <path d="M18.4897778,37.5337021 L8.65955556,37.5337021 C4.66666667,37.5337021 1.424,34.2693191 1.424,30.258766 L1.424,9.06306383 C1.424,5.04893617 4.66666667,1.78902128 8.65955556,1.78902128 L29.7431111,1.78902128 C33.7324444,1.78902128 36.9795556,5.04893617 36.9795556,9.06306383 L36.9795556,23.9471489 C36.9795556,24.3457021 37.2951111,24.6629362 37.6871111,24.6629362 C38.0835556,24.6629362 38.3991111,24.3457021 38.3991111,23.9471489 L38.3991111,9.06306383 C38.3991111,4.26344681 34.5173333,0.357446809 29.7431111,0.357446809 L8.65955556,0.357446809 C3.88533333,0.357446809 0,4.26344681 0,9.06306383 L0,30.258766 C0,35.058383 3.88533333,38.9608085 8.65955556,38.9608085 L18.4897778,38.9608085 C18.8817778,38.9608085 19.2017778,38.6435745 19.2017778,38.2450213 C19.2017778,37.8509362 18.8817778,37.5337021 18.4897778,37.5337021 Z" id="Fill-8" fill="#4E9FE9" mask="url(#mask-2)"></path>
                </g>
            </g>
        </g>
    </g>
</svg>