<?xml version="1.0" encoding="UTF-8"?>
<svg width="78px" height="78px" viewBox="0 0 78 78" version="1.1" xmlns="http://www.w3.org/2000/svg" xmlns:xlink="http://www.w3.org/1999/xlink">
    <!-- Generator: Sketch 51.2 (57519) - http://www.bohemiancoding.com/sketch -->
    <title>hospital</title>
    <desc>Created with Sketch.</desc>
    <defs>
        <polygon id="path-1" points="0.00569105691 0.0293617021 34.9659485 0.0293617021 34.9659485 29.908997 0.00569105691 29.908997"></polygon>
    </defs>
    <g id="desktop" stroke="none" stroke-width="1" fill="none" fill-rule="evenodd">
        <g id="guide_page" transform="translate(-566.000000, -6073.000000)">
            <g id="hospital" transform="translate(566.000000, 6073.000000)">
                <circle id="Oval" fill="#F7DEE7" cx="39" cy="39" r="39"></circle>
                <g id="building" stroke-width="1" transform="translate(20.000000, 20.000000)">
                    <path d="M27.3669048,35 L9.63309521,35 C9.2837981,35 9,35.3360431 9,35.7500824 L9,37.2498078 C9,37.6639569 9.2837981,38 9.63309521,38 C9.98285619,38 10.2666543,37.6639569 10.2666543,37.2498078 L10.2666543,36.4997254 L27.3669048,36.4997254 C27.7162019,36.4997254 28,36.1642316 28,35.7500824 C28,35.3360431 27.716573,35 27.3669048,35 Z" id="Fill-1" fill="#D62162"></path>
                    <g id="Group-7" transform="translate(0.000000, 8.000000)">
                        <mask id="mask-2" fill="white">
                            <use xlink:href="#path-1"></use>
                        </mask>
                        <g id="Clip-3"></g>
                        <path d="M14.2454743,8.12170213 C14.2454743,8.46510638 14.5355285,8.74395137 14.8927371,8.74395137 L17.4829268,8.74395137 C17.8405149,8.74395137 18.1302846,8.46510638 18.1302846,8.12170213 L18.1302846,4.38665653 C18.1302846,4.04288754 17.8405149,3.76404255 17.4829268,3.76404255 L14.8927371,3.76404255 C14.5355285,3.76404255 14.2454743,4.04288754 14.2454743,4.38665653 L14.2454743,8.12170213 Z M15.5403794,7.49908815 L16.8352846,7.49908815 L16.8352846,5.00927052 L15.5403794,5.00927052 L15.5403794,7.49908815 Z" id="Fill-2" fill="#D62162" mask="url(#mask-2)"></path>
                        <path d="M8.41764228,0.0293617021 L0.647642276,0.0293617021 C0.290149051,0.0293617021 0,0.307933131 0,0.651610942 L0,13.1016109 C0,13.4450152 0.290149051,13.7238602 0.647642276,13.7238602 C1.00485095,13.7238602 1.29490515,13.4450152 1.29490515,13.1016109 L1.29490515,1.27422492 L8.41764228,1.27422492 C8.77523035,1.27422492 9.06528455,0.995379939 9.06528455,0.651610942 C9.06528455,0.308206687 8.77523035,0.0293617021 8.41764228,0.0293617021 Z" id="Fill-4" fill="#D62162" mask="url(#mask-2)"></path>
                        <path d="M31.0807588,23.0615198 C31.0807588,23.4048328 31.370813,23.683769 31.7284011,23.683769 L34.3182114,23.683769 C34.6757995,23.683769 34.9659485,23.4048328 34.9659485,23.0615198 L34.9659485,19.3264742 C34.9659485,18.9827052 34.6757995,18.7038602 34.3182114,18.7038602 L31.7284011,18.7038602 C31.370813,18.7038602 31.0807588,18.9827052 31.0807588,19.3264742 L31.0807588,23.0615198 Z M32.375664,22.4389058 L33.6709485,22.4389058 L33.6709485,19.9490881 L32.375664,19.9490881 L32.375664,22.4389058 Z" id="Fill-5" fill="#D62162" mask="url(#mask-2)"></path>
                        <path d="M3.23754743,14.9691793 C0.0370867209,14.9691793 0,22.9806383 0,23.0615198 C0,24.5646201 1.11449864,25.8216109 2.58990515,26.1108511 L2.58990515,29.2862918 C2.58990515,29.6300608 2.87995935,29.908997 3.23754743,29.908997 C3.59504065,29.908997 3.8851897,29.6300608 3.8851897,29.2862918 L3.8851897,26.1108511 C5.36059621,25.8216109 6.47509485,24.5646201 6.47509485,23.0615198 C6.47509485,22.9806383 6.43838753,14.9691793 3.23754743,14.9691793 Z M3.23754743,24.928997 C2.16677507,24.928997 1.29490515,24.0909119 1.29490515,23.0615198 C1.29490515,19.9601216 2.16155827,16.2140426 3.23754743,16.2140426 C4.31382114,16.2140426 5.18009485,19.9601216 5.18009485,23.0615198 C5.18009485,24.0909119 4.30869919,24.928997 3.23754743,24.928997 Z" id="Fill-6" fill="#D62162" mask="url(#mask-2)"></path>
                    </g>
                    <path d="M5.50015846,19 L3.49984125,19 C3.22406424,19 3,19.27997 3,19.6247597 L3,20.8750114 C3,21.2198011 3.22406424,21.4997711 3.49984125,21.4997711 C3.77598449,21.4997711 3.99997549,21.2198011 3.99997549,20.8750114 L3.99997549,20.2498856 L5.00002422,20.2498856 L5.00002422,23.3748741 C5.00002422,23.7199385 5.22401522,24 5.50015846,24 C5.77593547,24 5.99999971,23.7199385 5.99999971,23.3748741 L5.99999971,19.6251259 C6.0002927,19.27997 5.77622846,19 5.50015846,19 Z" id="Fill-8" fill="#D62162"></path>
                    <path d="M30.5000854,16 L32.4998413,16 C32.7759576,16 33,15.72003 33,15.3752403 L33,11.6251259 C33,11.27997 32.7759576,11 32.4998413,11 L30.5000854,11 C30.2239691,11 30,11.27997 30,11.6251259 L30,15.3752403 C30,15.72003 30.2239691,16 30.5000854,16 Z M30.9998779,14.7501144 L32.0000488,14.7501144 L32.0000488,12.2502518 L30.9998779,12.2502518 L30.9998779,14.7501144 Z" id="Fill-9" fill="#D62162"></path>
                    <path d="M5.50015846,11 L3.49984125,11 C3.22406424,11 3,11.27997 3,11.6251259 L3,15.3752403 C3,15.72003 3.22406424,16 3.49984125,16 L5.50015846,16 C5.77593547,16 5.99999971,15.72003 5.99999971,15.3752403 L5.99999971,11.6251259 C6.0002927,11.27997 5.77622846,11 5.50015846,11 Z M3.99997549,14.7501144 L5.00002422,14.7501144 L5.00002422,12.2502518 L3.99997549,12.2502518 L3.99997549,14.7501144 Z" id="Fill-10" fill="#D62162"></path>
                    <path d="M20,15.3752403 C20,15.72003 20.2240424,16 20.5000854,16 L22.4999146,16 C22.7759576,16 23,15.72003 23,15.3752403 L23,11.6251259 C23,11.27997 22.7759576,11 22.4999146,11 L20.5000854,11 C20.2240424,11 20,11.27997 20,11.6251259 L20,15.3752403 Z M20.9998779,14.7501144 L22.0001221,14.7501144 L22.0001221,12.2502518 L20.9998779,12.2502518 L20.9998779,14.7501144 Z" id="Fill-11" fill="#D62162"></path>
                    <path d="M37.3569343,8 L29.6429715,8 C29.2880565,8 29,8.2796936 29,8.62475586 C29,8.96990967 29.2880565,9.24987793 29.6429715,9.24987793 L36.7139629,9.24987793 L36.7139629,34.3647156 C36.5124457,34.2949524 36.2983102,34.2499084 36.071368,34.2499084 C35.9602511,34.2499084 35.849605,34.2591553 35.7410306,34.2777405 C35.2974104,33.5010071 34.4532985,32.999939 33.4997646,32.999939 C32.5467015,32.999939 31.7025896,33.5010071 31.2589694,34.2777405 C31.150395,34.2591553 31.0397489,34.2499084 30.928632,34.2499084 C29.865582,34.2499084 29,35.0910034 29,36.1249084 C29,37.1584473 29.865582,38 30.928632,38 L36.071368,38 C37.134418,38 38,37.1584473 38,36.1249084 L38,8.62475586 C38,8.2796936 37.7119435,8 37.3569343,8 Z M36.071368,36.7496643 L30.928632,36.7496643 C30.5743761,36.7496643 30.2856605,36.4693298 30.2856605,36.1249084 C30.2856605,35.7804871 30.5743761,35.4997864 30.928632,35.4997864 C31.0518022,35.4997864 31.1688517,35.5341187 31.2769553,35.6016846 C31.4531415,35.7118225 31.6727387,35.7318726 31.867005,35.6553345 C32.0611771,35.5791626 32.2046874,35.4153748 32.2513942,35.2172546 C32.3870887,34.6478882 32.9009574,34.2499084 33.4997646,34.2499084 C34.0990426,34.2499084 34.6125347,34.6478882 34.7482291,35.2172546 C34.7953126,35.4153748 34.9388229,35.5791626 35.1326184,35.6553345 C35.3261313,35.7318726 35.5468585,35.7118225 35.7230447,35.6016846 C36.1412399,35.3392029 36.7139629,35.6603699 36.7139629,36.1249084 C36.7139629,36.4693298 36.4256239,36.7496643 36.071368,36.7496643 Z" id="Fill-12" fill="#D62162"></path>
                    <path d="M20.5000854,8 L22.4999146,8 C22.7759576,8 23,7.72003003 23,7.37487411 L23,3.62512589 C23,3.28006152 22.7759576,3 22.4999146,3 L20.5000854,3 C20.2240424,3 20,3.28006152 20,3.62512589 L20,7.37487411 C20,7.72003003 20.2240424,8 20.5000854,8 Z M20.9998779,6.75011444 L22.0001221,6.75011444 L22.0001221,4.24988556 L20.9998779,4.24988556 L20.9998779,6.75011444 Z" id="Fill-13" fill="#D62162"></path>
                    <path d="M20,23.3748741 C20,23.7199385 20.2240424,24 20.5000854,24 L22.4999146,24 C22.7759576,24 23,23.7199385 23,23.3748741 L23,19.6247597 C23,19.27997 22.7759576,19 22.4999146,19 L20.5000854,19 C20.2240424,19 20,19.27997 20,19.6247597 L20,23.3748741 Z M20.9998779,22.7501144 L22.0001221,22.7501144 L22.0001221,20.2498856 L20.9998779,20.2498856 L20.9998779,22.7501144 Z" id="Fill-14" fill="#D62162"></path>
                    <path d="M14.4998413,8 L16.5000855,8 C16.7762287,8 17,7.72003003 17,7.37487411 L17,3.62512589 C17,3.28006152 16.7762287,3 16.5000855,3 L14.4998413,3 C14.223991,3 14,3.28006152 14,3.62512589 L14,7.37487411 C14,7.72003003 14.223991,8 14.4998413,8 Z M14.9999756,6.75011444 L15.9999512,6.75011444 L15.9999512,4.24988556 L14.9999756,4.24988556 L14.9999756,6.75011444 Z" id="Fill-15" fill="#D62162"></path>
                    <path d="M19.1449912,30.1396518 C19.0549209,30.2352215 19,30.3658653 19,30.4968776 C19,30.6275214 19.0549209,30.7585337 19.1449912,30.8540297 C19.2399678,30.9444414 19.3698008,31 19.5,31 C19.629833,31 19.7597393,30.9444414 19.8549356,30.8540297 C19.9447862,30.7585337 20,30.6275214 20,30.4968776 C20,30.3658653 19.9447862,30.2352215 19.8549356,30.1396518 C19.6650557,29.9534494 19.3349443,29.9534494 19.1449912,30.1396518 Z" id="Fill-16" fill="#D62162"></path>
                    <path d="M14,23.3748741 C14,23.7199385 14.223991,24 14.4998413,24 L16.5000855,24 C16.7762287,24 17,23.7199385 17,23.3748741 L17,19.6247597 C17,19.27997 16.7762287,19 16.5000855,19 L14.4998413,19 C14.223991,19 14,19.27997 14,19.6247597 L14,23.3748741 Z M14.9999756,22.7501144 L15.9999512,22.7501144 L15.9999512,20.2498856 L14.9999756,20.2498856 L14.9999756,22.7501144 Z" id="Fill-17" fill="#D62162"></path>
                    <path d="M12,27.6667806 C12,28.0344474 12.268862,28.3331706 12.5997759,28.3331706 L14.3998945,28.3331706 L14.3998945,34.3331217 C14.3998945,34.7012768 14.6686687,35 15.000022,35 C15.3310237,35 15.5997978,34.7012768 15.5997978,34.3331217 L15.5997978,28.3331706 L20.3998506,28.3331706 L20.3998506,34.3331217 C20.3998506,34.7012768 20.6687126,35 21.0000659,35 C21.3309798,35 21.5998418,34.7012768 21.5998418,34.3331217 L21.5998418,28.3331706 L23.3998726,28.3331706 C23.7312259,28.3331706 24,28.0344474 24,27.6667806 C24,27.2986255 23.7312259,27 23.3998726,27 L12.5997759,27 C12.268862,27 12,27.2986255 12,27.6667806 Z" id="Fill-18" fill="#D62162"></path>
                    <path d="M30,23.3748741 C30,23.7199385 30.2239691,24 30.5000854,24 L32.4998413,24 C32.7759576,24 33,23.7199385 33,23.3748741 L33,19.6247597 C33,19.27997 32.7759576,19 32.4998413,19 L30.5000854,19 C30.2239691,19 30,19.27997 30,19.6247597 L30,23.3748741 Z M30.9998779,22.7501144 L32.0000488,22.7501144 L32.0000488,20.2498856 L30.9998779,20.2498856 L30.9998779,22.7501144 Z" id="Fill-19" fill="#D62162"></path>
                    <path d="M26.3930855,0 L10.6072699,0 C10.271973,0 10,0.290431612 10,0.648272981 L10,34.3516321 C10,34.7095684 10.271973,35 10.6072699,35 C10.9421222,35 11.214184,34.7095684 11.214184,34.3516321 L11.214184,1.29616619 L25.7858156,1.29616619 L25.7858156,34.3516321 C25.7858156,34.7095684 26.0577886,35 26.3930855,35 C26.7279378,35 26.9999997,34.7095684 26.9999997,34.3516321 L26.9999997,0.648272981 C27.0003554,0.290431612 26.7282935,0 26.3930855,0 Z" id="Fill-20" fill="#D62162"></path>
                </g>
            </g>
        </g>
    </g>
</svg>