<?xml version="1.0" encoding="UTF-8"?>
<svg width="16px" height="16px" viewBox="0 0 16 16" version="1.1" xmlns="http://www.w3.org/2000/svg" xmlns:xlink="http://www.w3.org/1999/xlink">
    <!-- Generator: Sketch 51.2 (57519) - http://www.bohemiancoding.com/sketch -->
    <title>search</title>
    <desc>Created with Sketch.</desc>
    <defs>
        <polygon id="path-1" points="0 0 16 0 16 16 0 16"></polygon>
    </defs>
    <g id="desktop" stroke="none" stroke-width="1" fill="none" fill-rule="evenodd" opacity="0.277790179">
        <g id="groceries_homepage_menu_fixed" transform="translate(-209.000000, -23.000000)">
            <g id="Group-5" transform="translate(209.000000, 19.000000)">
                <g id="search" transform="translate(0.000000, 4.000000)">
                    <mask id="mask-2" fill="white">
                        <use xlink:href="#path-1"></use>
                    </mask>
                    <g id="Clip-2"></g>
                    <path d="M15.7561529,14.5725194 L11.8127509,10.6134199 C12.826966,9.4488963 13.3826206,7.98420152 13.3826206,6.45947251 C13.3826206,2.8977926 10.3810676,0 6.69040117,0 C3.00155295,0 0,2.8977926 0,6.45947251 C0,10.0222056 3.00155295,12.9199982 6.69040117,12.9199982 C8.07553749,12.9199982 9.39667171,12.5169614 10.524345,11.7502085 L14.4990208,15.7409049 C14.6652081,15.9083688 14.8881245,16 15.128496,16 C15.3543216,16 15.5685104,15.9164436 15.7321522,15.7644271 C16.0801636,15.4421381 16.0899821,14.9085005 15.7561529,14.5725194 Z M6.69040117,1.68552245 C9.41776332,1.68552245 11.6367452,3.82779655 11.6367452,6.45947251 C11.6367452,9.09255277 9.41776332,11.2344758 6.69040117,11.2344758 C3.96449362,11.2344758 1.74587542,9.09255277 1.74587542,6.45947251 C1.74587542,3.82779655 3.96449362,1.68552245 6.69040117,1.68552245 Z" id="Fill-1" fill="#000000" mask="url(#mask-2)"></path>
                </g>
            </g>
        </g>
    </g>
</svg>